{
    "10b79fe1-6d36-4998-b1c0-f5683c414f6f": {
        "key": "10b79fe1-6d36-4998-b1c0-f5683c414f6f",
        "series_number": {
            "$key": "042039d2-10a7-4450-a8cf-2ea00d4f6339",
            "$table": "KernelVersion"
        },
        "series_number_collapsed": "54"
    }
}