{
    "0afc33d0-a8d4-414d-b23e-215f047fe196": {
        "key": "0afc33d0-a8d4-414d-b23e-215f047fe196",
        "type": "mainline",
        "build_job_id": "120636615",
        "version": {
            "$key": "71a1d6e8-680b-4c2b-bb0e-88b965c6b01a",
            "$table": "KernelVersion"
        },
        "kernel_series": {
            "$key": "83aea4d0-b730-46d1-928e-cbb0afb57827",
            "$table": "KernelSeries"
        },
        "workspace": {
            "$key": "de136960-11fb-4d66-94ee-deab390f2e1e",
            "$table": "Workspace"
        }
    }
}