{
    "101fa8e9-0808-46ce-8273-005351eb2a8a": {
        "key": "101fa8e9-0808-46ce-8273-005351eb2a8a",
        "type": "stable",
        "build_job_id": "137780369",
        "version": {
            "$key": "a5849ace-1d3a-4cce-ae5c-35a97a2dc696",
            "$table": "KernelVersion"
        },
        "kernel_series": {
            "$key": "db25ab70-b6ca-4887-a07e-9acf2552b0b0",
            "$table": "KernelSeries"
        },
        "workspace": {
            "$key": "112ecf7f-72dd-412d-97d9-5bf891923acd",
            "$table": "Workspace"
        }
    }
}