{
    "5abf40ff-67b3-4d82-9fab-a64495897fee": {
        "key": "5abf40ff-67b3-4d82-9fab-a64495897fee",
        "type": "stable",
        "build_job_id": "289433483",
        "version": {
            "$key": "59f8aacb-563e-496b-8f60-9bc7d6aa348c",
            "$table": "KernelVersion"
        },
        "kernel_series": {
            "$key": "d9e104f5-bebb-45de-8702-b7de2a84f8d7",
            "$table": "KernelSeries"
        },
        "workspace": {
            "$key": "d2135fd1-3f59-4bf6-814b-c807c1f7eff9",
            "$table": "Workspace"
        }
    }
}