{
    "76f37862-27ca-47f9-a0af-418c0e8ad2eb": {
        "key": "76f37862-27ca-47f9-a0af-418c0e8ad2eb",
        "type": "stable",
        "build_job_id": "177232255",
        "version": {
            "$key": "ea626faf-3b73-4b67-ab17-f78f66a510fe",
            "$table": "KernelVersion"
        },
        "kernel_series": {
            "$key": "e7b394ff-e108-4ff9-816d-bb7d36ea5e7d",
            "$table": "KernelSeries"
        },
        "workspace": {
            "$key": "8154adab-14d1-47d2-9e9e-cf9d7b81e4c7",
            "$table": "Workspace"
        }
    }
}