{
    "81c219a0-4a77-4b3c-9354-e72e1b3aff29": {
        "key": "81c219a0-4a77-4b3c-9354-e72e1b3aff29",
        "type": "stable",
        "build_job_id": "378349168",
        "version": {
            "$key": "d5b31795-543e-4c10-8645-1a79dc83c946",
            "$table": "KernelVersion"
        },
        "kernel_series": {
            "$key": "10b79fe1-6d36-4998-b1c0-f5683c414f6f",
            "$table": "KernelSeries"
        },
        "workspace": {
            "$key": "70571723-f926-420f-a948-51d67f12d619",
            "$table": "Workspace"
        }
    }
}