{
    "8a953f42-f795-48b4-b611-87a484821377": {
        "key": "8a953f42-f795-48b4-b611-87a484821377",
        "type": "stable",
        "build_job_id": "300596292",
        "version": {
            "$key": "1c6c282a-f2d0-4ae7-abde-b9a717bbbae6",
            "$table": "KernelVersion"
        },
        "kernel_series": {
            "$key": "a33396ca-c7ad-4f97-9c92-72ac341f361c",
            "$table": "KernelSeries"
        },
        "workspace": {
            "$key": "d2135fd1-3f59-4bf6-814b-c807c1f7eff9",
            "$table": "Workspace"
        }
    }
}