{
    "b0a5be6a-c391-4c10-9d81-12aff058c298": {
        "key": "b0a5be6a-c391-4c10-9d81-12aff058c298",
        "type": "stable",
        "build_job_id": "393941706",
        "version": {
            "$key": "b5fff6f3-1a16-4086-9a1e-409e8ed02081",
            "$table": "KernelVersion"
        },
        "kernel_series": {
            "$key": "10b79fe1-6d36-4998-b1c0-f5683c414f6f",
            "$table": "KernelSeries"
        },
        "workspace": {
            "$key": "70571723-f926-420f-a948-51d67f12d619",
            "$table": "Workspace"
        }
    }
}