{
    "ba23e4a4-401f-4e6e-ad5f-a32aa47ec1b1": {
        "key": "ba23e4a4-401f-4e6e-ad5f-a32aa47ec1b1",
        "type": "mainline",
        "build_job_id": "340472445",
        "version": {
            "$key": "5cd92ec8-2c4f-4164-8659-4ca096a7da23",
            "$table": "KernelVersion"
        },
        "kernel_series": {
            "$key": "10b79fe1-6d36-4998-b1c0-f5683c414f6f",
            "$table": "KernelSeries"
        },
        "workspace": {
            "$key": "70571723-f926-420f-a948-51d67f12d619",
            "$table": "Workspace"
        }
    }
}