{
    "d3ee7aff-1c82-4a49-92eb-e11d6204eff2": {
        "key": "d3ee7aff-1c82-4a49-92eb-e11d6204eff2",
        "type": "mainline",
        "build_job_id": "203949875",
        "version": {
            "$key": "d02919cc-7b41-461a-80f1-2c52150393da",
            "$table": "KernelVersion"
        },
        "kernel_series": {
            "$key": "fc683acd-38f8-4163-b6cf-e6cecaa6fd07",
            "$table": "KernelSeries"
        },
        "workspace": {
            "$key": "d2135fd1-3f59-4bf6-814b-c807c1f7eff9",
            "$table": "Workspace"
        }
    }
}