{
    "d7c393b4-217f-40cb-80b0-b3e5e97be337": {
        "key": "d7c393b4-217f-40cb-80b0-b3e5e97be337",
        "type": "stable",
        "build_job_id": "164418174",
        "version": {
            "$key": "529b01a3-8a87-4402-bd53-9177ba74c33c",
            "$table": "KernelVersion"
        },
        "kernel_series": {
            "$key": "83aea4d0-b730-46d1-928e-cbb0afb57827",
            "$table": "KernelSeries"
        },
        "workspace": {
            "$key": "de136960-11fb-4d66-94ee-deab390f2e1e",
            "$table": "Workspace"
        }
    }
}