{
    "d80795da-60a3-46b9-baf3-56092cd0e148": {
        "key": "d80795da-60a3-46b9-baf3-56092cd0e148",
        "type": "stable",
        "build_job_id": "300596290",
        "version": {
            "$key": "4f61fcee-6ce5-4cc6-b000-e7736c158d43",
            "$table": "KernelVersion"
        },
        "kernel_series": {
            "$key": "d9e104f5-bebb-45de-8702-b7de2a84f8d7",
            "$table": "KernelSeries"
        },
        "workspace": {
            "$key": "d2135fd1-3f59-4bf6-814b-c807c1f7eff9",
            "$table": "Workspace"
        }
    }
}